{
  "fluentMethods": true,
  "clientRootFolder": "",
  "relationships": [],
  "fields": [
    {
      "fieldName": "name",
      "fieldType": "String"
    },
    {
      "fieldName": "age",
      "fieldType": "Integer"
    },
    {
      "fieldName": "city",
      "fieldType": "String"
    }
  ],
  "changelogDate": "20201218125730",
  "dto": "no",
  "searchEngine": false,
  "service": "no",
  "entityTableName": "fortezza_employees",
  "databaseType": "sql",
  "readOnly": false,
  "jpaMetamodelFiltering": false,
  "pagination": "no"
}
